<svg width="80" height="100" viewBox="0 0 80 100" fill="none" xmlns="http://www.w3.org/2000/svg">
<circle cx="41" cy="36" r="10" fill="#68B881"/>
<path d="M70.4266 36.48C67.5466 36.48 65.0133 38 63.6 40.2934L55.4933 38.16C55.5466 37.7333 55.5466 37.28 55.5466 36.8267C55.5466 33.7867 54.56 30.96 52.9066 28.64L63.28 18.2667C64.4 18.88 65.7066 19.2267 67.0666 19.2267C71.4933 19.2267 75.0666 15.6267 75.0666 11.2267C75.0666 6.80002 71.4666 3.22668 67.0666 3.22668C62.6666 3.22668 59.0666 6.82668 59.0666 11.2267C59.0666 12.5867 59.4133 13.8933 60.0266 15.0133L49.6533 25.3867C47.36 23.7333 44.5333 22.7467 41.4666 22.7467C37.2 22.7467 33.36 24.6667 30.7733 27.68L17.3333 19.5467C17.4933 18.9067 17.5733 18.24 17.5733 17.5467C17.5733 13.12 13.9733 9.54668 9.5733 9.54668C5.1733 9.54668 1.5733 13.1467 1.5733 17.5467C1.5733 21.9734 5.1733 25.5467 9.5733 25.5467C11.6533 25.5467 13.52 24.7467 14.96 23.4667L28.4533 31.6C27.8133 33.2 27.4666 34.96 27.4666 36.8C27.4666 39.84 28.4533 42.6667 30.1066 44.9867L13.3866 61.7067C12.2666 61.0933 10.96 60.7467 9.59997 60.7467C5.1733 60.7467 1.59997 64.3467 1.59997 68.7467C1.59997 73.1467 5.19997 76.7467 9.59997 76.7467C14 76.7467 17.6 73.1467 17.6 68.7467C17.6 67.3867 17.2533 66.08 16.64 64.96L33.3333 48.2667C35.36 49.7067 37.7866 50.64 40.4 50.8533L41.0933 59.04C38.1333 60.2133 36.0266 63.12 36.0266 66.48C36.0266 70.9067 39.6266 74.48 44.0266 74.48C48.4533 74.48 52.0266 70.88 52.0266 66.48C52.0266 62.6133 49.28 59.3867 45.6533 58.64L44.96 50.48C49.12 49.4133 52.56 46.48 54.2933 42.64L62.4 44.7733C62.5333 49.0667 66.08 52.5067 70.4 52.5067C74.8266 52.5067 78.4 48.9067 78.4 44.5067C78.4533 40.08 74.8533 36.48 70.4266 36.48ZM9.5733 20.96C7.70664 20.96 6.18664 19.44 6.18664 17.5734C6.18664 15.7067 7.70664 14.1867 9.5733 14.1867C11.44 14.1867 12.96 15.7067 12.96 17.5734C12.96 19.44 11.44 20.96 9.5733 20.96ZM67.12 7.84002C68.9866 7.84002 70.5066 9.36002 70.5066 11.2267C70.5066 13.0934 68.9866 14.6133 67.12 14.6133C65.2533 14.6133 63.7333 13.0934 63.7333 11.2267C63.7333 9.36002 65.2533 7.84002 67.12 7.84002ZM9.5733 72.16C7.70664 72.16 6.18664 70.64 6.18664 68.7733C6.18664 66.9067 7.70664 65.3867 9.5733 65.3867C11.44 65.3867 12.96 66.9067 12.96 68.7733C12.96 70.64 11.44 72.16 9.5733 72.16ZM47.4666 66.48C47.4666 68.3467 45.9466 69.8667 44.08 69.8667C42.2133 69.8667 40.6933 68.3467 40.6933 66.48C40.6933 64.6133 42.2133 63.0933 44.08 63.0933C45.9466 63.0667 47.4666 64.6133 47.4666 66.48ZM41.52 46.2934C36.2933 46.2934 32.0533 42.0534 32.0533 36.8267C32.0533 31.6 36.2933 27.36 41.52 27.36C46.7466 27.36 50.9866 31.6 50.9866 36.8267C50.9866 42.0534 46.72 46.2934 41.52 46.2934ZM70.4266 47.8933C68.56 47.8933 67.04 46.3733 67.04 44.5067C67.04 42.64 68.56 41.12 70.4266 41.12C72.2933 41.12 73.8133 42.64 73.8133 44.5067C73.8133 46.3733 72.32 47.8933 70.4266 47.8933Z" fill="#373C58"/>
</svg>
