<svg width="599" height="352" viewBox="0 0 599 352" fill="none" xmlns="http://www.w3.org/2000/svg">
<circle opacity="0.7" cx="298.612" cy="180.139" r="171.609" fill="#8FDBD8"/>
<g clip-path="url(#clip0)">
<rect x="214.491" y="97.0487" width="158.504" height="180.412" fill="white"/>
<path d="M367.518 105.494V103.994H366.018H231.208H229.708V105.494V269.519C229.708 273.397 232.878 276.56 236.756 276.56H360.47C364.348 276.56 367.518 273.397 367.518 269.519V105.494ZM233.977 73.6135H260.663V77.6776C260.663 85.1917 266.816 91.3381 274.336 91.3381H322.89C330.413 91.3381 336.566 85.1962 336.566 77.6776V73.6135H363.249C373.143 73.6135 381.235 81.7008 381.235 91.5743V270.912C381.235 280.786 373.143 288.873 363.249 288.873H233.977C224.082 288.873 215.991 280.786 215.991 270.912V91.5743C215.991 81.7008 224.082 73.6135 233.977 73.6135Z" fill="#FFC876" stroke="#373C58" stroke-width="3"/>
<path fill-rule="evenodd" clip-rule="evenodd" d="M274.335 58.19H285.21C285.248 50.8363 291.24 44.8707 298.612 44.8707C305.99 44.8707 311.975 50.8248 312.014 58.19H322.888C327.479 58.19 331.236 61.9414 331.236 66.5265V77.6775C331.236 82.2626 327.479 86.014 322.888 86.014H274.335C269.748 86.014 265.991 82.2626 265.991 77.6775V66.5265C265.991 61.9414 269.748 58.19 274.335 58.19ZM298.612 52.5189C295.43 52.5189 292.868 55.0734 292.868 58.255C292.868 61.4443 295.418 63.9911 298.612 63.9911C301.797 63.9911 304.355 61.4328 304.355 58.255C304.355 55.0848 301.786 52.5189 298.612 52.5189Z" fill="#373C58"/>
<path fill-rule="evenodd" clip-rule="evenodd" d="M286.234 216.182C284.056 216.262 281.937 215.24 280.401 213.706L259.459 192.793C251.949 185.298 263.304 173.945 270.814 181.45L286.234 196.832L326.402 156.739C333.922 149.244 345.277 160.577 337.767 168.083L292.057 213.706C290.441 215.32 288.493 216.182 286.234 216.182Z" fill="#68B881"/>
</g>
<ellipse cx="125.5" cy="314" rx="22.5" ry="22" fill="#FFC876"/>
<ellipse cx="441" cy="39.5" rx="11" ry="11.5" fill="#FFC876"/>
<ellipse cx="491.5" cy="77.5" rx="16.5" ry="17.5" fill="#68B881"/>
<ellipse cx="450.5" cy="327" rx="9.5" ry="9" fill="#E6447E"/>
<ellipse cx="8.5" cy="189.5" rx="8.5" ry="9.5" fill="#E6447E"/>
<circle cx="92.5" cy="146.5" r="7.5" fill="#68B881"/>
<ellipse cx="165" cy="231.5" rx="17" ry="17.5" fill="white"/>
<circle cx="448.5" cy="165.5" r="7.5" fill="white"/>
<ellipse cx="76.5" cy="93.5" rx="16.5" ry="17.5" fill="#E7E5E5"/>
<ellipse cx="66.5" cy="242.5" rx="31.5" ry="30.5" fill="#E7E5E5"/>
<ellipse cx="565.5" cy="138.5" rx="33.5" ry="36.5" fill="#E7E5E5"/>
<circle cx="531" cy="237" r="23" fill="#FFC876"/>
<circle cx="151.5" cy="19.5" r="19.5" fill="#8FDBD8"/>
<defs>
<clipPath id="clip0">
<rect x="214.491" y="44.8707" width="168.244" height="306.878" fill="white"/>
</clipPath>
</defs>
</svg>
